<svg width="40" height="41" viewBox="0 0 40 41" fill="none" xmlns="http://www.w3.org/2000/svg">
<g filter="url(#filter0_d_4108_6712)">
<path d="M26.4381 27.3858C28.807 24.4281 31.6666 20.8579 31.6666 15C31.6666 8.55667 26.4432 3.33333 19.9999 3.33333C13.5566 3.33333 8.33325 8.55667 8.33325 15C8.33325 20.8579 11.1928 24.4281 13.5617 27.3858C15.2368 29.4771 16.6666 31.2623 16.6666 33.3333C16.6666 35.1743 18.159 36.6667 19.9999 36.6667C21.8409 36.6667 23.3333 35.1743 23.3333 33.3333C23.3333 31.2623 24.763 29.4771 26.4381 27.3858Z" fill="#EC0000"/>
</g>
<path d="M22.4244 12.982L20.4342 9.51806C20.2824 9.25389 20.1776 8.97084 20.1193 8.68056L20.0362 8.82532C19.5436 9.68272 19.5436 10.7389 20.0361 11.5963L21.6284 14.3675C22.1209 15.2249 22.1209 16.2812 21.6284 17.1386L21.5452 17.2834C21.4869 16.9931 21.3821 16.71 21.2303 16.4459L18.842 12.2891C18.6903 12.025 18.5855 11.7419 18.5272 11.4516L18.4441 11.5964C17.9532 12.4509 17.9516 13.5029 18.4392 14.3588L20.0362 17.1386C20.5288 17.9959 20.5288 19.0523 20.0362 19.9097L19.953 20.0544C19.8948 19.7641 19.7899 19.4811 19.6382 19.217L17.648 15.753C17.3811 15.2885 17.2591 14.7655 17.2815 14.2474C15.1509 14.8067 13.6804 15.9944 13.6804 17.3695C13.6804 19.2825 16.526 20.8333 20.0362 20.8333C23.5464 20.8333 26.3919 19.2825 26.3919 17.3695C26.3919 15.9943 24.9216 14.8063 22.7909 14.247C22.772 13.8091 22.65 13.3746 22.4244 12.982Z" fill="white"/>
<defs>
<filter id="filter0_d_4108_6712" x="5.33325" y="1.33333" width="29.3333" height="39.3333" filterUnits="userSpaceOnUse" color-interpolation-filters="sRGB">
<feFlood flood-opacity="0" result="BackgroundImageFix"/>
<feColorMatrix in="SourceAlpha" type="matrix" values="0 0 0 0 0 0 0 0 0 0 0 0 0 0 0 0 0 0 127 0" result="hardAlpha"/>
<feOffset dy="1"/>
<feGaussianBlur stdDeviation="1.5"/>
<feColorMatrix type="matrix" values="0 0 0 0 0 0 0 0 0 0 0 0 0 0 0 0 0 0 0.2 0"/>
<feBlend mode="normal" in2="BackgroundImageFix" result="effect1_dropShadow_4108_6712"/>
<feBlend mode="normal" in="SourceGraphic" in2="effect1_dropShadow_4108_6712" result="shape"/>
</filter>
</defs>
</svg>
