<svg width="40" height="40" viewBox="0 0 56 56" fill="none" xmlns="http://www.w3.org/2000/svg">
<g filter="url(#filter0_d_4181_2123)">
<path d="M37.0128 38.3401C40.3293 34.1994 44.3327 29.2011 44.3327 21.0001C44.3327 11.9794 37.02 4.66675 27.9993 4.66675C18.9787 4.66675 11.666 11.9794 11.666 21.0001C11.666 29.2011 15.6694 34.1994 18.9859 38.3401C21.331 41.2681 23.3327 43.7673 23.3327 46.6668C23.3327 49.2441 25.422 51.3334 27.9993 51.3334C30.5767 51.3334 32.666 49.2441 32.666 46.6668C32.666 43.7673 34.6677 41.2681 37.0128 38.3401Z" fill="white"/>
</g>
<path d="M31.3939 18.1748L28.6076 13.3253C28.3952 12.9555 28.2483 12.5592 28.1668 12.1528L28.0505 12.3555C27.3608 13.5559 27.3608 15.0345 28.0503 16.2349L30.2795 20.1146C30.969 21.3149 30.969 22.7937 30.2795 23.9941L30.163 24.1968C30.0815 23.7904 29.9346 23.3941 29.7222 23.0243L26.3786 17.2048C26.1662 16.835 26.0195 16.4387 25.9378 16.0323L25.8215 16.235C25.1342 17.4313 25.1321 18.9041 25.8147 20.1023L28.0505 23.9941C28.7401 25.1944 28.7401 26.6732 28.0505 27.8736L27.934 28.0763C27.8525 27.6699 27.7056 27.2736 27.4932 26.9039L24.707 22.0543C24.3333 21.4039 24.1625 20.6717 24.1938 19.9464C21.2111 20.7295 19.1523 22.3922 19.1523 24.3174C19.1523 26.9956 23.1361 29.1667 28.0505 29.1667C32.9647 29.1667 36.9485 26.9956 36.9485 24.3174C36.9485 22.3921 34.89 20.7289 31.907 19.9459C31.8806 19.3328 31.7098 18.7246 31.3939 18.1748Z" fill="#EC0000"/>
<defs>
<filter id="filter0_d_4181_2123" x="8.66602" y="2.66675" width="38.666" height="52.6667" filterUnits="userSpaceOnUse" color-interpolation-filters="sRGB">
<feFlood flood-opacity="0" result="BackgroundImageFix"/>
<feColorMatrix in="SourceAlpha" type="matrix" values="0 0 0 0 0 0 0 0 0 0 0 0 0 0 0 0 0 0 127 0" result="hardAlpha"/>
<feOffset dy="1"/>
<feGaussianBlur stdDeviation="1.5"/>
<feColorMatrix type="matrix" values="0 0 0 0 0 0 0 0 0 0 0 0 0 0 0 0 0 0 0.2 0"/>
<feBlend mode="normal" in2="BackgroundImageFix" result="effect1_dropShadow_4181_2123"/>
<feBlend mode="normal" in="SourceGraphic" in2="effect1_dropShadow_4181_2123" result="shape"/>
</filter>
</defs>
</svg>
